Getting started with nestedmodels
…
A quick example

In this vignette, we’re going to explore the most basic example of a
nested model. You’re going to need the following packages:

We’re going to use the example data included in the nestedmodels
package. The data is very simple, and only serves as an example of data
that can be nested, rather than representing anything concrete.

data("example_nested_data")
data <- example_nested_data
data
#> # A tibble: 1,000 × 7
#>       id   id2     x     y     z     a     b
#>    <int> <int> <int> <dbl> <dbl> <dbl> <dbl>
#>  1     1     1    49  48.5  29.1  44.7 50.0 
#>  2     1     1    50  64.2  29.7  40.2 64.9 
#>  3     1     1    51 -19.4  26.6  43.2 38.0 
#>  4     1     1    52  41.0  28.8  66.4 61.7 
#>  5     1     1    53 -94.2  23.9  18.2 -1.66
#>  6     1     1    54  72.6  30.0  83.8 38.8 
#>  7     1     1    55 -91.5  24.0  91.7 40.7 
#>  8     1     1    56 -50.5  25.5  79.8 55.4 
#>  9     1     1    57  90.3  30.6  50.3 33.8 
#> 10     1     1    58  32.4  28.6  25.4 20.5 
#> # … with 990 more rows
…
Predicting can also be done in the usual way (the data to predict on
can be both nested and non-nested). Since this is just a demonstration,
we use the same data that the model was fitted on.

predict(model_fit, data_tst)
#> # A tibble: 260 × 1
#>    .pred
#>    <dbl>
#>  1  31.3
#>  2  42.1
#>  3  32.3
#>  4  31.7
#>  5  43.4
#>  6  30.9
#>  7  43.5
#>  8  57.4
#>  9  30.9
#> 10  41.6
#> # … with 250 more rows
…
recipe <- recipe(data_tr, z ~ x + y + a + b + id) %>%
  step_nest(id)

This is a little easier than nesting the data manually. Note that the
recipe does not actually nest the data, but instead removes the
specified columns and adds a new column, ‘nest_id’, which specifies
which nest each row belongs to.

recipe %>%
  prep() %>%
  bake(NULL)
#> # A tibble: 740 × 6
#>        x      y     a      b     z nest_id
#>    <int>  <dbl> <dbl>  <dbl> <dbl> <fct>  
#>  1    50  64.2  40.2  64.9    29.7 Nest 1 
#>  2    88 -11.9  58.2  55.9    45.3 Nest 1 
#>  3    70  -8.65  3.10 12.6    35.7 Nest 1 
#>  4    75  62.5  82.9   0.128  55.8 Nest 1 
#>  5    53 -94.2  18.2  -1.66   23.9 Nest 1 
#>  6    55 -91.5  91.7  40.7    24.0 Nest 1 
#>  7    86 104.   63.8  -0.387  57.4 Nest 1 
#>  8    68  43.8   2.76 55.4    21.1 Nest 1 
#>  9    82  47.3  25.6  62.0    55.3 Nest 1 
#> 10    72  80.9  59.7  26.0    38.9 Nest 1 
#> # … with 730 more rows
…
wf <- workflow() %>%
  add_model(nested_model) %>%
  add_recipe(recipe)

A workflow can be fitted in the same way as a model, but note that
since we used step_nest() the data does not have to be
nested.

wf_fit <- fit(wf, data_tr)

This fit object can then be used to make predictions.

predict(wf_fit, data_tst)
#> # A tibble: 260 × 1
#>    .pred
#>    <dbl>
#>  1  31.3
#>  2  42.1
#>  3  32.3
#>  4  31.7
#>  5  43.4
#>  6  30.9
#>  7  43.5
#>  8  57.4
#>  9  30.9
#> 10  41.6
#> # … with 250 more rows

Other common parsnip functions can also be used on fitted nested
models:

augment(wf_fit, data_tst)
#> # A tibble: 260 × 8
#>       id   id2     x       y      z     a     b .pred
#>    <int> <int> <int>   <dbl>  <dbl> <dbl> <dbl> <dbl>
#>  1     1     1    52  41.0   28.8   66.4  61.7   31.3
#>  2     1     1    57  90.3   30.6   50.3  33.8   42.1
#>  3     1     1    60  -0.846 27.4   94.1  54.7   32.3
#>  4     1     1    61 -79.5   24.5   98.1  18.4   31.7
#>  5     1     1    62 109.    23.4    5.23 19.8   43.4
#>  6     1     1    73 -67.2   33.6   31.3   5.80  30.9
#>  7     1     2    74  75.8   38.8   98.7  57.2   43.5
#>  8     1     2    83 105.    57.4   75.7   4.30  57.4
#>  9     1     2    90 -29.9    0.767 84.2  65.3   30.9
#> 10     1     2    94  89.9    5.14  26.5  54.7   41.6
#> # … with 250 more rows
tidy(wf_fit)
#> # A tibble: 100 × 4
#>    nest_id term         estimate penalty
#>    <fct>   <chr>           <dbl>   <dbl>
#>  1 Nest 1  (Intercept)   23.8        0.1
#>  2 Nest 1  x              0.176      0.1
#>  3 Nest 1  y              0.115      0.1
#>  4 Nest 1  a              0.105      0.1
#>  5 Nest 1  b             -0.215      0.1
#>  6 Nest 2  (Intercept) -106.         0.1
#>  7 Nest 2  x              0.773      0.1
#>  8 Nest 2  y             -0.0133     0.1
#>  9 Nest 2  a             -0.0627     0.1
#> 10 Nest 2  b              0.144      0.1
#> # … with 90 more rows
…
